<?xml version="1.0" encoding="UTF-8" standalone="no"?>
<svg
   xmlns:dc="http://purl.org/dc/elements/1.1/"
   xmlns:cc="http://creativecommons.org/ns#"
   xmlns:rdf="http://www.w3.org/1999/02/22-rdf-syntax-ns#"
   xmlns:svg="http://www.w3.org/2000/svg"
   xmlns="http://www.w3.org/2000/svg"
   version="1.1"
   id="svg2"
   xml:space="preserve"
   width="301.16492"
   height="440.75613"
   viewBox="0 0 301.16491 440.75613"><metadata
     id="metadata8"><rdf:RDF><cc:Work
         rdf:about=""><dc:format>image/svg+xml</dc:format><dc:type
           rdf:resource="http://purl.org/dc/dcmitype/StillImage" /><dc:title></dc:title></cc:Work></rdf:RDF></metadata><defs
     id="defs6" /><g
     id="g10"
     transform="matrix(1.3333333,0,0,-1.3333333,-55.296398,480.70399)"><g
       id="g12"
       transform="scale(0.1)"><path
         d="m 1595.05,3206.75 c 14.15,0 25.64,6.94 25.64,15.49 0,8.56 -11.49,15.51 -25.64,15.51 -14.18,0 -25.64,-6.95 -25.64,-15.51 0,-8.55 11.46,-15.49 25.64,-15.49"
         style="fill:#fab80a;fill-opacity:1;fill-rule:nonzero;stroke:none"
         id="path14" /><path
         d="m 1606.16,2976.23 c -25.94,-0.03 -50.24,-0.37 -72.58,-0.87 4.29,-1.59 7.51,-3.4 7.51,-3.4 4.03,-4.97 8.1,-12.7 14.85,-24.41 4.5,-7.89 12.16,-13.42 21.22,-13.65 15.58,-0.36 30.85,3.54 44.36,11.25 l 50.87,29.46 c 0,0 0.6,0.39 1.56,0.97 -20.31,0.42 -42.65,0.69 -67.2,0.65 h -0.59"
         style="fill:#fab80a;fill-opacity:1;fill-rule:nonzero;stroke:none"
         id="path16" /><path
         d="m 1602.7,3029.19 c -67.26,0.52 -137.27,-2.15 -180.05,-4.19 15.5,92.38 90.25,118.95 138.89,126.39 7.08,11.65 23.25,17.72 23.25,17.72 -0.41,4.11 1.29,5.58 2.86,5.43 1.54,-0.12 2.69,8.32 -2.46,8.32 -5.17,0 -6.48,6.22 -6.62,10.72 -0.13,4.51 -9.94,9.78 -9.94,9.78 h 0.18 c -7.93,4.67 -13,11.36 -13,18.88 0,14.13 17.57,25.59 39.24,25.59 21.66,0 39.28,-11.46 39.28,-25.59 0,-7.51 -5.08,-14.2 -13.01,-18.88 h 0.05 c 0,0 -9.83,-5.27 -9.94,-9.78 -0.14,-4.5 -1.44,-10.72 -6.62,-10.72 -5.15,0 -4,-8.44 -2.45,-8.32 1.58,0.15 3.24,-1.32 2.85,-5.43 0,0 14.79,-5.51 22.31,-16.15 47.15,-4.78 134.24,-27.32 151.21,-127.78 -43.09,2.01 -110.88,4.53 -176.03,4.01 z m -6.82,276.09 c -171.29,0 -310.15,-138.87 -310.15,-310.14 0,-55.42 14.61,-107.39 40.07,-152.41 l 103.64,36.52 4.9,-12.55 77.7,17.35 c 1.01,1.27 1.87,2.67 2.4,4.28 l 4.33,13.52 0.5,2.02 c 4,15.9 3.3,32.63 -1.98,48.18 l -4.18,12.31 c -0.95,2.72 -0.8,5.68 0.28,8.25 0.43,0.93 0.99,1.65 1.61,2.3 -63.34,-1.71 -106.84,-4.38 -116.2,-3.66 -11.56,0.88 -18.49,15.95 -20.17,20.04 -5.04,-0.49 -8.31,-1.01 -9.07,-1.56 0,0 -10.16,17.36 17.91,17.65 0,0 110.41,6.8 216.3,5.82 104.65,0.85 213.01,-5.82 213.01,-5.82 28.05,-0.29 17.91,-17.65 17.91,-17.65 -0.85,0.61 -4.73,1.18 -10.75,1.72 -1.59,-3.91 -8.57,-19.31 -20.24,-20.2 -8.93,-0.69 -43.12,1.85 -98.89,3.55 0.11,-0.35 0.26,-0.61 0.35,-0.98 0.29,-2.75 -0.75,-5.5 -2.87,-7.36 -31.02,-26.69 -48.77,-46.53 -76.69,-81.87 -15.74,-19.83 -33.41,-17.36 -92.19,-56.53 l 15.69,-41.89 -70.46,-33.09 6.41,-16.44 -35.71,-14.87 c 43.64,-23.44 93.53,-36.77 146.54,-36.77 171.29,0 310.13,138.85 310.13,310.14 0,171.27 -138.84,310.14 -310.13,310.14"
         style="fill:#fab80a;fill-opacity:1;fill-rule:nonzero;stroke:none"
         id="path18" /><path
         d="m 726.438,2234.54 v 13.23 c 0,135.56 50.16,189.03 112.964,189.03 18.762,0 29.77,-2.22 44.11,-8.83 v -69.43 c -13.789,8.26 -24.817,12.67 -37.481,12.67 -29.761,0 -51.246,-26.44 -51.246,-122.89 V 2234 c 0,-101.93 21.485,-122.88 52.356,-122.88 10.453,0 23.683,3.85 37.472,12.11 v -66.12 c -15.441,-8.82 -30.316,-11.58 -49.609,-11.58 -61.719,0 -108.566,54.56 -108.566,189.01"
         style="fill:#231f20;fill-opacity:1;fill-rule:nonzero;stroke:none"
         id="path20" /><path
         d="m 1046.61,2185.49 -20.38,127.31 -20.93,-127.31 z m -55.102,249.64 h 71.622 l 73.31,-386.84 h -67.23 l -12.68,76.6 h -61.175 l -12.113,-76.6 h -65.035 l 73.301,386.84"
         style="fill:#231f20;fill-opacity:1;fill-rule:nonzero;stroke:none"
         id="path22" /><path
         d="m 1195.38,2370.11 h -47.4 v 63.92 H 1310 v -63.92 h -47.4 v -321.82 h -67.22 v 321.82"
         style="fill:#231f20;fill-opacity:1;fill-rule:nonzero;stroke:none"
         id="path24" /><path
         d="m 1357.38,2434.03 h 147.67 v -63.92 h -80.44 v -95.88 h 71.09 v -63.93 h -71.09 v -98.08 h 82.11 v -63.93 h -149.34 v 385.74"
         style="fill:#231f20;fill-opacity:1;fill-rule:nonzero;stroke:none"
         id="path26" /><path
         d="m 1629.02,2243.36 c 29.22,0 50.71,17.08 50.71,62.27 v 4.41 c 0,48.5 -23.15,61.17 -52.35,61.17 h -1.66 v -127.85 z m -70.52,190.67 h 69.45 c 68.87,0 119.02,-36.37 119.02,-122.88 v -4.96 c 0,-50.15 -19.84,-82.11 -45.21,-101.4 l 51.81,-156.5 h -71.64 l -43.55,134.47 h -12.66 v -134.47 h -67.22 v 385.74"
         style="fill:#231f20;fill-opacity:1;fill-rule:nonzero;stroke:none"
         id="path28" /><path
         d="m 1798.2,2434.03 h 67.25 v -385.74 h -67.25 v 385.74"
         style="fill:#231f20;fill-opacity:1;fill-rule:nonzero;stroke:none"
         id="path30" /><path
         d="m 1925.47,2434.03 h 62.85 l 67.77,-195.08 v 195.08 h 65.57 v -385.74 h -59.51 l -71.1,204.44 v -204.44 h -65.58 v 385.74"
         style="fill:#231f20;fill-opacity:1;fill-rule:nonzero;stroke:none"
         id="path32" /><path
         d="m 2174,2234.54 v 13.23 c 0,124.53 52.89,189.03 128.95,189.03 20.37,0 37.46,-4.42 51.25,-11.03 v -69.98 c -16.54,9.92 -31.41,16.51 -49.06,16.51 -38.56,0 -62.82,-38.56 -62.82,-121.77 v -18.74 c 0,-100.85 29.75,-123.99 57.33,-123.99 2.19,0 2.73,0 6.03,0.55 V 2207 h -33.04 v 60.06 h 94.24 v -205 c -24.26,-10.47 -44.09,-16.53 -70,-16.53 -67.21,0 -122.88,54.56 -122.88,189.01"
         style="fill:#231f20;fill-opacity:1;fill-rule:nonzero;stroke:none"
         id="path34" /><path
         d="m 721.262,975.391 v 29.509 c 28.312,-18.291 51.886,-26.541 71.953,-26.541 34.769,0 57.199,22.991 57.199,59.571 v 1.17 c 0,34.2 -12.387,57.18 -57.785,118.51 -54.836,73.73 -68.414,97.31 -68.414,135.06 v 1.18 c 0,48.93 35.976,84.31 80.801,84.31 23.589,0 42.449,-6.49 62.5,-18.28 v -29.48 c -22.399,15.35 -43.051,23 -63.102,23 -31.836,0 -54.254,-23.59 -54.254,-57.78 v -1.18 c 0,-30.68 12.375,-54.25 58.375,-112.64 50.125,-63.09 67.832,-96.71 67.832,-140.94 v -1.17 c 0,-52.491 -35.976,-86.108 -83.738,-86.108 -24.176,0 -46.609,7.656 -71.367,21.809"
         style="fill:#231f20;fill-opacity:1;fill-rule:nonzero;stroke:none"
         id="path36" /><path
         d="m 951.234,1372.28 h 140.376 v -23.59 H 977.207 v -169.26 h 104.373 v -23.58 H 977.207 V 983.082 H 1093.38 V 959.48 H 951.234 v 412.8"
         style="fill:#231f20;fill-opacity:1;fill-rule:nonzero;stroke:none"
         id="path38" /><path
         d="m 1214.86,1148.77 c 56.6,0 92.59,35.98 92.59,100.25 v 1.18 c 0,66.64 -37.76,98.49 -93.78,98.49 h -24.18 v -199.92 z m -51.32,223.51 h 51.32 c 71.93,0 118.52,-44.23 118.52,-121.48 v -1.19 c 0,-57.18 -26.53,-98.48 -71.35,-115.58 l 79.01,-174.55 h -30.66 l -74.89,168.07 c -7.09,-1.17 -14.75,-1.76 -22.99,-1.76 h -23.01 V 959.48 h -25.95 v 412.8"
         style="fill:#231f20;fill-opacity:1;fill-rule:nonzero;stroke:none"
         id="path40" /><path
         d="m 1387.65,1372.28 h 27.14 l 72.52,-366.79 72.55,366.79 h 25.92 L 1499.7,956.531 h -25.96 l -86.09,415.749"
         style="fill:#231f20;fill-opacity:1;fill-rule:nonzero;stroke:none"
         id="path42" /><path
         d="m 1660.1,1372.28 h 25.94 v -412.8 h -25.94 v 412.8"
         style="fill:#231f20;fill-opacity:1;fill-rule:nonzero;stroke:none"
         id="path44" /><path
         d="m 1765.66,1160.58 v 10.59 c 0,136.24 51.31,203.47 110.28,203.47 18.28,0 27.71,-3.54 40.1,-10.02 v -27.74 c -15.34,8.87 -26.53,12.98 -40.1,12.98 -46,0 -84.32,-61.91 -84.32,-178.69 v -10.59 c 0,-116.75 38.32,-178.701 84.32,-178.701 14.72,0 27.11,4.152 41.87,13.562 V 968.91 c -11.79,-7.078 -25.37,-11.789 -43.04,-11.789 -60.75,0 -109.11,67.229 -109.11,203.459"
         style="fill:#231f20;fill-opacity:1;fill-rule:nonzero;stroke:none"
         id="path46" /><path
         d="m 1991.5,1372.28 h 140.36 v -23.59 h -114.4 v -169.26 h 104.4 v -23.58 h -104.4 V 983.082 h 116.17 V 959.48 H 1991.5 v 412.8"
         style="fill:#231f20;fill-opacity:1;fill-rule:nonzero;stroke:none"
         id="path48" /><path
         d="m 2190.86,975.391 v 29.509 c 28.3,-18.291 51.87,-26.541 71.93,-26.541 34.81,0 57.21,22.991 57.21,59.571 v 1.17 c 0,34.2 -12.4,57.18 -57.79,118.51 -54.85,73.73 -68.42,97.31 -68.42,135.06 v 1.18 c 0,48.93 35.98,84.31 80.8,84.31 23.59,0 42.44,-6.49 62.5,-18.28 v -29.48 c -22.4,15.35 -43.03,23 -63.11,23 -31.83,0 -54.23,-23.59 -54.23,-57.78 v -1.18 c 0,-30.68 12.38,-54.25 58.36,-112.64 50.13,-63.09 67.83,-96.71 67.83,-140.94 v -1.17 c 0,-52.491 -35.98,-86.108 -83.73,-86.108 -24.18,0 -46.6,7.656 -71.35,21.809"
         style="fill:#231f20;fill-opacity:1;fill-rule:nonzero;stroke:none"
         id="path50" /><path
         d="m 898.191,1542.71 c -25.378,-49.01 -51.828,-70.89 -85.855,-70.89 -40.828,0 -70.438,40.69 -70.438,96.76 v 4.28 c 0,37.68 10.735,92.11 61.911,137.56 l 1.968,1.73 92.918,-168.45 z m -127.097,317.76 v 1.41 c 0,33.62 19.304,67.57 56.168,67.57 34.593,0 52.64,-33.26 52.64,-66.11 v -2.15 c 0,-41.16 -20.722,-79.16 -63.324,-116.21 l -1.898,-1.64 -1.297,2.16 c -32.039,54.27 -42.289,82.22 -42.289,114.97 z m 153.57,-314.14 0.313,0.9 c 14.492,39.98 24.55,83.13 31.66,135.67 l -22.883,3.6 c -6.332,-47.24 -12.871,-79.64 -22.617,-111.39 l -1.469,-4.8 -2.398,4.42 -81.165,150.2 1.192,1.12 c 48.363,44.87 78.351,83.12 78.351,135.14 v 4.25 c 0,42.16 -27.488,86.93 -78.386,86.93 -50.578,0 -81.895,-47.31 -81.895,-91.18 v -3.58 c 0,-35.73 16.457,-70.33 48.797,-125.66 l 0.859,-1.48 -1.238,-1.12 c -50.972,-45.59 -79.062,-101.94 -79.062,-158.63 v -4.97 c 0,-57.31 33.715,-118.22 96.16,-118.22 40.535,0 71.164,22.06 99.305,71.55 l 1.898,3.26 39.844,-74 21.308,12.78 -48.574,85.21"
         style="fill:#231f20;fill-opacity:1;fill-rule:nonzero;stroke:none"
         id="path52" /><path
         d="m 1035.85,1948.75 h 190.8 v -82.59 H 1122.7 V 1742.3 h 91.85 v -82.59 h -91.85 v -126.72 h 106.1 v -82.58 h -192.95 v 498.34"
         style="fill:#231f20;fill-opacity:1;fill-rule:nonzero;stroke:none"
         id="path54" /><path
         d="m 1270.77,1948.75 h 88.25 l 47.01,-324.64 47,324.64 h 85.41 l -89,-499.76 h -89.67 l -89,499.76"
         style="fill:#231f20;fill-opacity:1;fill-rule:nonzero;stroke:none"
         id="path56" /><path
         d="m 1589.69,1948.75 h 190.8 v -82.59 H 1676.54 V 1742.3 h 91.84 v -82.59 h -91.84 v -126.72 h 106.1 v -82.58 h -192.95 v 498.34"
         style="fill:#231f20;fill-opacity:1;fill-rule:nonzero;stroke:none"
         id="path58" /><path
         d="m 1849.53,1948.75 h 81.13 l 87.58,-251.99 v 251.99 h 84.71 v -498.34 h -76.88 l -91.85,264.13 v -264.13 h -84.69 v 498.34"
         style="fill:#231f20;fill-opacity:1;fill-rule:nonzero;stroke:none"
         id="path60" /><path
         d="m 2225.37,1866.16 h -61.21 v 82.59 h 209.3 v -82.59 h -61.21 v -415.75 h -86.88 v 415.75"
         style="fill:#231f20;fill-opacity:1;fill-rule:nonzero;stroke:none"
         id="path62" /><path
         d="m 730.199,642.469 v 99.41 h 26.293 V 640.082 c 0,-12.621 4.781,-17.641 11.512,-17.641 6.746,0 11.527,5.02 11.527,17.641 v 101.797 h 26.297 v -99.41 c 0,-29.43 -16.082,-42.668 -37.824,-42.668 -21.727,0 -37.805,13.238 -37.805,42.668"
         style="fill:#231f20;fill-opacity:1;fill-rule:nonzero;stroke:none"
         id="path64" /><path
         d="m 821.031,741.879 h 24.774 l 26.715,-70.93 v 70.93 h 25.863 v -140.27 h -23.465 l -28.023,74.34 v -74.34 h -25.864 v 140.27"
         style="fill:#231f20;fill-opacity:1;fill-rule:nonzero;stroke:none"
         id="path66" /><path
         d="m 914.469,741.879 h 26.504 v -140.27 h -26.504 v 140.27"
         style="fill:#231f20;fill-opacity:1;fill-rule:nonzero;stroke:none"
         id="path68" /><path
         d="m 949.441,741.879 h 26.95 l 14.339,-91.359 14.32,91.359 h 26.09 l -27.16,-140.68 h -27.378 l -27.161,140.68"
         style="fill:#231f20;fill-opacity:1;fill-rule:nonzero;stroke:none"
         id="path70" /><path
         d="m 1039.18,741.879 h 58.24 v -23.238 h -31.73 V 683.75 h 28.04 v -23.219 h -28.04 V 624.84 h 32.37 v -23.231 h -58.88 v 140.27"
         style="fill:#231f20;fill-opacity:1;fill-rule:nonzero;stroke:none"
         id="path72" /><path
         d="m 1138.68,672.531 c 11.54,0 20.01,6.219 20.01,22.66 v 1.61 c 0,17.629 -9.12,22.23 -20.65,22.23 h -0.66 v -46.5 z m -27.8,69.348 h 27.37 c 27.17,0 46.95,-13.238 46.95,-44.688 v -1.812 c 0,-18.219 -7.84,-29.848 -17.83,-36.848 l 20.43,-56.922 h -28.24 l -17.17,48.911 h -5.01 v -48.911 h -26.5 v 140.27"
         style="fill:#231f20;fill-opacity:1;fill-rule:nonzero;stroke:none"
         id="path74" /><path
         d="m 1194.1,606.422 v 25.449 c 9.35,-5.019 16.73,-7.832 23.9,-7.832 7.61,0 14.13,3.422 14.13,12.031 v 0.399 c 0,6.422 -2.17,11.242 -14.79,24.453 -18.01,18.848 -25.42,27.867 -25.42,44.879 v 0.398 c 0,22.442 15.88,36.66 36.95,36.66 10.65,0 16.95,-1.379 23.46,-4.39 V 713.02 c -8.24,4.41 -13.25,6.41 -20.2,6.41 -7.4,0 -13.7,-4.399 -13.7,-12.032 v -0.386 c 0,-6.614 2.18,-9.012 14.77,-22.43 20.88,-22.273 25.43,-30.871 25.43,-46.902 v -0.41 c 0,-22.04 -16.72,-36.649 -37.59,-36.649 -10.42,0 -19.33,2.399 -26.94,5.801"
         style="fill:#231f20;fill-opacity:1;fill-rule:nonzero;stroke:none"
         id="path76" /><path
         d="m 1268.42,741.879 h 26.52 v -140.27 h -26.52 v 140.27"
         style="fill:#231f20;fill-opacity:1;fill-rule:nonzero;stroke:none"
         id="path78" /><path
         d="m 1325.14,718.641 h -18.69 v 23.238 h 63.88 v -23.238 h -18.69 V 601.609 h -26.5 v 117.032"
         style="fill:#231f20;fill-opacity:1;fill-rule:nonzero;stroke:none"
         id="path80" /><path
         d="m 1399.66,656.91 -28.25,84.969 h 27.37 l 14.34,-52.508 14.56,52.508 h 26.73 l -28.25,-84.969 v -55.301 h -26.5 v 55.301"
         style="fill:#231f20;fill-opacity:1;fill-rule:nonzero;stroke:none"
         id="path82" /><path
         d="m 1548.05,668.129 v 7.211 c 0,36.09 -5.41,46.101 -13.46,46.101 -8.04,0 -13.47,-10.011 -13.47,-46.101 v -7.211 c 0,-36.078 5.43,-46.09 13.47,-46.09 8.05,0 13.46,10.012 13.46,46.09 z m -53.87,0 v 7.211 c 0,46.301 16.29,68.551 40.41,68.551 24.1,0 40.41,-22.25 40.41,-68.551 v -7.211 c 0,-46.289 -16.31,-68.52 -40.41,-68.52 -24.12,0 -40.41,22.231 -40.41,68.52"
         style="fill:#231f20;fill-opacity:1;fill-rule:nonzero;stroke:none"
         id="path84" /><path
         d="m 1588.03,741.879 h 55.43 v -23.238 h -28.89 v -35.27 h 25.2 v -23.262 h -25.2 v -58.5 h -26.54 v 140.27"
         style="fill:#231f20;fill-opacity:1;fill-rule:nonzero;stroke:none"
         id="path86" /><path
         d="m 1682.77,741.879 h 27.17 l 11.08,-85.981 13.26,85.981 h 24.55 l 13.05,-85.981 11.26,85.981 h 26.53 l -23.03,-140.68 h -27.81 l -12.6,83.172 -12.6,-83.172 h -27.81 l -23.05,140.68"
         style="fill:#231f20;fill-opacity:1;fill-rule:nonzero;stroke:none"
         id="path88" /><path
         d="m 1859.41,651.5 -8.02,46.289 -8.26,-46.289 z m -21.71,90.781 h 28.24 l 28.9,-140.672 h -26.52 l -4.96,27.852 h -24.14 l -4.77,-27.852 h -25.66 l 28.91,140.672"
         style="fill:#231f20;fill-opacity:1;fill-rule:nonzero;stroke:none"
         id="path90" /><path
         d="m 1910.51,718.641 h -18.71 v 23.238 h 63.9 v -23.238 h -18.71 V 601.609 h -26.48 v 117.032"
         style="fill:#231f20;fill-opacity:1;fill-rule:nonzero;stroke:none"
         id="path92" /><path
         d="M 1966.76,741.879 H 2025 v -23.238 h -31.72 V 683.75 h 28.03 v -23.219 h -28.03 V 624.84 h 32.36 v -23.231 h -58.88 v 140.27"
         style="fill:#231f20;fill-opacity:1;fill-rule:nonzero;stroke:none"
         id="path94" /><path
         d="m 2066.27,672.531 c 11.5,0 19.98,6.219 19.98,22.66 v 1.61 c 0,17.629 -9.1,22.23 -20.62,22.23 h -0.65 v -46.5 z m -27.81,69.348 h 27.38 c 27.17,0 46.93,-13.238 46.93,-44.688 v -1.812 c 0,-18.219 -7.81,-29.848 -17.83,-36.848 l 20.43,-56.922 h -28.24 l -17.15,48.911 h -5 v -48.911 h -26.52 v 140.27"
         style="fill:#231f20;fill-opacity:1;fill-rule:nonzero;stroke:none"
         id="path96" /><path
         d="m 2124.94,741.879 h 26.52 V 624.84 h 28.01 v -23.231 h -54.53 v 140.27"
         style="fill:#231f20;fill-opacity:1;fill-rule:nonzero;stroke:none"
         id="path98" /><path
         d="m 2235.98,668.129 v 7.211 c 0,36.09 -5.43,46.101 -13.46,46.101 -8.05,0 -13.48,-10.011 -13.48,-46.101 v -7.211 c 0,-36.078 5.43,-46.09 13.48,-46.09 8.03,0 13.46,10.012 13.46,46.09 z m -53.87,0 v 7.211 c 0,46.301 16.31,68.551 40.41,68.551 24.1,0 40.41,-22.25 40.41,-68.551 v -7.211 c 0,-46.289 -16.31,-68.52 -40.41,-68.52 -24.1,0 -40.41,22.231 -40.41,68.52"
         style="fill:#231f20;fill-opacity:1;fill-rule:nonzero;stroke:none"
         id="path100" /><path
         d="m 2327.25,668.129 v 7.211 c 0,36.09 -5.43,46.101 -13.48,46.101 -8.03,0 -13.48,-10.011 -13.48,-46.101 v -7.211 c 0,-36.078 5.45,-46.09 13.48,-46.09 8.05,0 13.48,10.012 13.48,46.09 z m -53.89,0 v 7.211 c 0,46.301 16.29,68.551 40.41,68.551 24.1,0 40.41,-22.25 40.41,-68.551 v -7.211 c 0,-46.289 -16.31,-68.52 -40.41,-68.52 -24.12,0 -40.41,22.231 -40.41,68.52"
         style="fill:#231f20;fill-opacity:1;fill-rule:nonzero;stroke:none"
         id="path102" /></g></g></svg>